Stat 220 – Text Analysis
…
Tokenize

library(tidytext)
DataSciencePapers |>
  unnest_tokens(output = word, input = abstract) |>
  select(id, word)

# A tibble: 194,983 × 2
   id                 word     
   <chr>              <chr>    
 1 astro-ph/0701361v1 astronomy
 2 astro-ph/0701361v1 is       
 3 astro-ph/0701361v1 one      
 4 astro-ph/0701361v1 of       
 5 astro-ph/0701361v1 the      
 6 astro-ph/0701361v1 most     
 7 astro-ph/0701361v1 data     
 8 astro-ph/0701361v1 intensive
 9 astro-ph/0701361v1 of       
10 astro-ph/0701361v1 the      
# ℹ 194,973 more rows

Remove stopwords

DataSciencePapers |>
  unnest_tokens(word, abstract) |>
  anti_join(get_stopwords(source = "stopwords-iso"), by = "word") |>
  select(id, word)

# A tibble: 98,780 × 2
   id                 word         
   <chr>              <chr>        
 1 astro-ph/0701361v1 astronomy    
 2 astro-ph/0701361v1 data         
 3 astro-ph/0701361v1 intensive    
 4 astro-ph/0701361v1 sciences     
 5 astro-ph/0701361v1 data         
 6 astro-ph/0701361v1 technology   
 7 astro-ph/0701361v1 accelerating 
 8 astro-ph/0701361v1 quality      
 9 astro-ph/0701361v1 effectiveness
10 astro-ph/0701361v1 rate         
# ℹ 98,770 more rows

Aside: clean the categories

DataSciencePapers |>
  select(primary_category) 

# A tibble: 1,089 × 1
   primary_category
   <chr>           
 1 astro-ph        
 2 astro-ph.IM     
 3 astro-ph.IM     
 4 astro-ph.IM     
 5 cs.SI           
 6 astro-ph.IM     
 7 cs.CL           
 8 physics.soc-ph  
 9 physics.geo-ph  
10 physics.soc-ph  
# ℹ 1,079 more rows

Aside: clean the categories

DataSciencePapers |>
  separate(primary_category, into = c("broad", "specific"), sep = "\\.") |>
  select(broad, specific) |>
  unique()

# A tibble: 99 × 2
   broad    specific
   <chr>    <chr>   
 1 astro-ph <NA>    
 2 astro-ph IM      
 3 cs       SI      
 4 cs       CL      
 5 physics  soc-ph  
 6 physics  geo-ph  
 7 q-bio    PE      
 8 stat     AP      
 9 cs       SE      
10 physics  ed-ph   
# ℹ 89 more rows
…
\[\text{tf-df(t, d)} = \frac{\text{tf(t, d)}}{\text{idf(t)}}\]

highest tf-idf’s are used a lot within an abstract, and rarely in other abstracts

arxiv_papers %>%
  unnest_tokens(word, abstract_clean) |>
  count(id, word) |>
  bind_tf_idf(word, id, n) |>
  group_by(word) |>
  mutate(total_n = sum(n)) |>
  ungroup() |>
  arrange(desc(tf_idf)) 

# A tibble: 74,165 × 7
   id           word            n    tf   idf tf_idf total_n
   <chr>        <chr>       <int> <dbl> <dbl>  <dbl>   <int>
 1 2007.12681v1 fintech         8 0.154  6.99  1.08        8
 2 1707.07029v1 reflections     1 0.167  6.30  1.05        2
 3 1507.00333v3 mf             14 0.14   6.99  0.979      14
 4 1906.04572v1 utv             8 0.116  6.99  0.811       8
 5 2006.00371v1 ridge           3 0.125  6.30  0.787       4
 6 1907.09387v1 4.0             5 0.102  6.99  0.714       5
 7 1906.04572v1 cor             7 0.101  6.99  0.709       7
 8 2001.06937v1 gans           10 0.122  5.61  0.684      13
 9 1606.06769v1 traffic        17 0.17   4.00  0.680      63
10 1810.10989v3 speech          7 0.130  5.20  0.674      15
# ℹ 74,155 more rows
…
