dplyr 1: Verbs – Stat 220
…
Wrangling the nycflights23 data

Part 1

Find all flights that had an arrival delay of two or more hours.

Find all flights to MSP

Find all flights that arrived more than two hours late, but left less than one hour late

(if time) Find all flights that were delayed by at least an hour, but made up over 30 minutes in flight

filter(flights, dep_delay >= 120)

# A tibble: 15,367 × 19
    year month   day dep_time sched_dep_time dep_delay arr_time sched_arr_time
   <int> <int> <int>    <int>          <int>     <dbl>    <int>          <int>
 1  2023     1     1        1           2038       203      328              3
 2  2023     1     1       33           2140       173      238           2352
 3  2023     1     1       36           2048       228      223           2252
 4  2023     1     1      831            600       151     1044            838
 5  2023     1     1      925            700       145     1214           1005
 6  2023     1     1     1000            700       180     1322           1019
 7  2023     1     1     1017            817       120     1454           1311
 8  2023     1     1     1056            700       236     1345           1027
 9  2023     1     1     1109            735       214     1417           1048
10  2023     1     1     1110            829       161     1412           1211
# ℹ 15,357 more rows
# ℹ 11 more variables: arr_delay <dbl>, carrier <chr>, flight <int>,
#   tailnum <chr>, origin <chr>, dest <chr>, air_time <dbl>, distance <dbl>,
#   hour <dbl>, minute <dbl>, time_hour <dttm>

filter(flights, dest == "MSP")

# A tibble: 5,938 × 19
    year month   day dep_time sched_dep_time dep_delay arr_time sched_arr_time
   <int> <int> <int>    <int>          <int>     <dbl>    <int>          <int>
 1  2023     1     1      603            605        -2      800            818
 2  2023     1     1      655            700        -5      841            907
 3  2023     1     1      657            700        -3      902            927
 4  2023     1     1      749            750        -1      938           1006
 5  2023     1     1      951           1000        -9     1159           1237
 6  2023     1     1     1207           1217       -10     1430           1445
 7  2023     1     1     1312           1059       133     1518           1319
 8  2023     1     1     1314           1153        81     1518           1357
 9  2023     1     1     1506           1500         6     1712           1717
10  2023     1     1     1513           1512         1     1724           1721
# ℹ 5,928 more rows
# ℹ 11 more variables: arr_delay <dbl>, carrier <chr>, flight <int>,
#   tailnum <chr>, origin <chr>, dest <chr>, air_time <dbl>, distance <dbl>,
#   hour <dbl>, minute <dbl>, time_hour <dttm>
…
Part 2

Use arrange to answer the following questions:

Which flights traveled the farthest?

Which traveled the shortest?

Which flights lasted the longest?

Which lasted the shortest?

arrange(flights, desc(distance))

# A tibble: 435,352 × 19
    year month   day dep_time sched_dep_time dep_delay arr_time sched_arr_time
   <int> <int> <int>    <int>          <int>     <dbl>    <int>          <int>
 1  2023     1     1      949            900        49       NA           1525
 2  2023     1     1     1023           1000        23     1637           1610
 3  2023     1     2      919            900        19     1543           1525
 4  2023     1     2      951           1000        -9     1620           1610
 5  2023     1     3      922            900        22     1535           1525
 6  2023     1     3     1007           1000         7     1630           1610
 7  2023     1     4      912            900        12     1511           1525
 8  2023     1     4     1001           1000         1     1630           1610
 9  2023     1     5      854            900        -6     1454           1525
10  2023     1     5      949           1000       -11     1600           1610
# ℹ 435,342 more rows
# ℹ 11 more variables: arr_delay <dbl>, carrier <chr>, flight <int>,
#   tailnum <chr>, origin <chr>, dest <chr>, air_time <dbl>, distance <dbl>,
#   hour <dbl>, minute <dbl>, time_hour <dttm>

arrange(flights, distance)

# A tibble: 435,352 × 19
    year month   day dep_time sched_dep_time dep_delay arr_time sched_arr_time
   <int> <int> <int>    <int>          <int>     <dbl>    <int>          <int>
 1  2023     1     1      816            820        -4      910            921
 2  2023     1     2      820            820         0      907            921
 3  2023     1     2     2324           2159        85       41           2300
 4  2023     1     3       14           2158       136      104           2259
 5  2023     1     3      815            820        -5      913            921
 6  2023     1     4      756            759        -3      903            900
 7  2023     1     4     1353           1347         6     1449           1448
 8  2023     1     5      804            759         5      908            900
 9  2023     1     5     1346           1347        -1     1444           1447
10  2023     1     6      817            759        18      926            900
# ℹ 435,342 more rows
# ℹ 11 more variables: arr_delay <dbl>, carrier <chr>, flight <int>,
#   tailnum <chr>, origin <chr>, dest <chr>, air_time <dbl>, distance <dbl>,
#   hour <dbl>, minute <dbl>, time_hour <dttm>

arrange(flights, desc(air_time))

# A tibble: 435,352 × 19
    year month   day dep_time sched_dep_time dep_delay arr_time sched_arr_time
   <int> <int> <int>    <int>          <int>     <dbl>    <int>          <int>
 1  2023     3     9     1009           1000         9     1720           1605
 2  2023     1    10      913            900        13     1615           1525
 3  2023     3    10      852            900        -8     1616           1537
 4  2023     3     8      853            900        -7     1608           1525
 5  2023     1    31      858            900        -2     1627           1525
 6  2023     4     2     1104           1000        64     1702           1510
 7  2023     1    28     1121            900       141     1820           1525
 8  2023     3    23      851            900        -9     1451           1437
 9  2023     2     4     1005           1000         5     1649           1605
10  2023     3     7     1345            900       285     2100           1525
# ℹ 435,342 more rows
# ℹ 11 more variables: arr_delay <dbl>, carrier <chr>, flight <int>,
#   tailnum <chr>, origin <chr>, dest <chr>, air_time <dbl>, distance <dbl>,
#   hour <dbl>, minute <dbl>, time_hour <dttm>

arrange(flights, air_time)

# A tibble: 435,352 × 19
    year month   day dep_time sched_dep_time dep_delay arr_time sched_arr_time
   <int> <int> <int>    <int>          <int>     <dbl>    <int>          <int>
 1  2023     1    12     2151           2155        -4     2247           2256
 2  2023     1     3     1155           1200        -5     1235           1311
 3  2023     1    12     1452           1455        -3     1540           1607
 4  2023     1    15      757            759        -2      839            900
 5  2023     1    19     1450           1455        -5     1536           1607
 6  2023     2     5     1422           1430        -8     1511           1538
 7  2023     3     1     1438           1440        -2     1524           1548
 8  2023     3    17      825            835       -10      911            945
 9  2023     4     6     1201           1109        52     1255           1218
10  2023     6     8     2211           2149        22     2256           2242
# ℹ 435,342 more rows
# ℹ 11 more variables: arr_delay <dbl>, carrier <chr>, flight <int>,
#   tailnum <chr>, origin <chr>, dest <chr>, air_time <dbl>, distance <dbl>,
#   hour <dbl>, minute <dbl>, time_hour <dttm>

Part 3

Create a new column in flights giving the average speed of the flight while it was in the air. What are the units of this variable? Make the variable in terms of miles per hour.

mutate(flights, avg_speed = distance/air_time)

# A tibble: 435,352 × 20
    year month   day dep_time sched_dep_time dep_delay arr_time sched_arr_time
   <int> <int> <int>    <int>          <int>     <dbl>    <int>          <int>
 1  2023     1     1        1           2038       203      328              3
 2  2023     1     1       18           2300        78      228            135
 3  2023     1     1       31           2344        47      500            426
 4  2023     1     1       33           2140       173      238           2352
 5  2023     1     1       36           2048       228      223           2252
 6  2023     1     1      503            500         3      808            815
 7  2023     1     1      520            510        10      948            949
 8  2023     1     1      524            530        -6      645            710
 9  2023     1     1      537            520        17      926            818
10  2023     1     1      547            545         2      845            852
# ℹ 435,342 more rows
# ℹ 12 more variables: arr_delay <dbl>, carrier <chr>, flight <int>,
#   tailnum <chr>, origin <chr>, dest <chr>, air_time <dbl>, distance <dbl>,
#   hour <dbl>, minute <dbl>, time_hour <dttm>, avg_speed <dbl>
…
dep_delay between 31 and 60 minutes -> major

dep_delay over 60 minutes -> extreme

Use mutate() and case_when() to create a delay_category variable in the flights data frame.

mutate(flights, delay_category = case_when(
  dep_delay <= 0 ~ "none",
  dep_delay <= 15 ~ "minimal",
  dep_delay <= 30 ~ "delayed",
  dep_delay <= 60 ~ "major",
  dep_delay > 60 ~ "extreme"
))

# A tibble: 435,352 × 20
    year month   day dep_time sched_dep_time dep_delay arr_time sched_arr_time
   <int> <int> <int>    <int>          <int>     <dbl>    <int>          <int>
 1  2023     1     1        1           2038       203      328              3
 2  2023     1     1       18           2300        78      228            135
 3  2023     1     1       31           2344        47      500            426
 4  2023     1     1       33           2140       173      238           2352
 5  2023     1     1       36           2048       228      223           2252
 6  2023     1     1      503            500         3      808            815
 7  2023     1     1      520            510        10      948            949
 8  2023     1     1      524            530        -6      645            710
 9  2023     1     1      537            520        17      926            818
10  2023     1     1      547            545         2      845            852
# ℹ 435,342 more rows
# ℹ 12 more variables: arr_delay <dbl>, carrier <chr>, flight <int>,
#   tailnum <chr>, origin <chr>, dest <chr>, air_time <dbl>, distance <dbl>,
#   hour <dbl>, minute <dbl>, time_hour <dttm>, delay_category <chr>

and we can check with select():

mutate(flights, delay_category = case_when(
  dep_delay <= 0 ~ "none",
  dep_delay <= 15 ~ "minimal",
  dep_delay <= 30 ~ "delayed",
  dep_delay <= 60 ~ "major",
  dep_delay > 60 ~ "extreme"
)) %>%
  select(dep_delay, delay_category)

# A tibble: 435,352 × 2
   dep_delay delay_category
       <dbl> <chr>         
 1       203 extreme       
 2        78 extreme       
 3        47 major         
 4       173 extreme       
 5       228 extreme       
 6         3 minimal       
 7        10 minimal       
 8        -6 none          
 9        17 delayed       
10         2 minimal       
# ℹ 435,342 more rows
…
