Data import and dates/times – Solutions – Stat 220
…
Task 1: print list of dates

first_class = mdy("1/6/2025")
mondays = first_class + weeks(1:9)
wednesdays = mondays + days(2)
fridays = wednesdays + days(2)

meetings = tibble(
  dates = c(mondays, wednesdays, fridays)
) %>%
  arrange(dates)

meetings

# A tibble: 27 × 1
   dates     
   <date>    
 1 2025-01-13
 2 2025-01-15
 3 2025-01-17
 4 2025-01-20
 5 2025-01-22
 6 2025-01-24
 7 2025-01-27
 8 2025-01-29
 9 2025-01-31
10 2025-02-03
# ℹ 17 more rows

Task 2

Next, print them in the format “Wednesday: Jan 29 2025”

meetings %>%
  mutate(
    date2 = stamp("Wednesday: Jan 29 2025")(dates)
  )

# A tibble: 27 × 2
   dates      date2                 
   <date>     <chr>                 
 1 2025-01-13 Monday: Jan 13 2025   
 2 2025-01-15 Wednesday: Jan 15 2025
 3 2025-01-17 Friday: Jan 17 2025   
 4 2025-01-20 Monday: Jan 20 2025   
 5 2025-01-22 Wednesday: Jan 22 2025
 6 2025-01-24 Friday: Jan 24 2025   
 7 2025-01-27 Monday: Jan 27 2025   
 8 2025-01-29 Wednesday: Jan 29 2025
 9 2025-01-31 Friday: Jan 31 2025   
10 2025-02-03 Monday: Feb 03 2025   
# ℹ 17 more rows
…
