Stat 220 – Working with Factors
…
            Carleton College 
 Stat 220 - Winter 2025

Today

setup chunk and alt-text

HW5 and Portfolio 2 grace period

New stuff!

Survivor castaways data

# A tibble: 1,351 × 29
   version version_season season_name      season full_name castaway_id castaway
   <fct>   <chr>          <chr>             <dbl> <chr>     <chr>       <chr>   
 1 US      US01           Survivor: Borneo      1 Sonja Ch… US0001      Sonja   
 2 US      US01           Survivor: Borneo      1 B.B. And… US0002      B.B.    
 3 US      US01           Survivor: Borneo      1 Stacey S… US0003      Stacey  
 4 US      US01           Survivor: Borneo      1 Ramona G… US0004      Ramona  
 5 US      US01           Survivor: Borneo      1 Dirk Been US0005      Dirk    
 6 US      US01           Survivor: Borneo      1 Joel Klug US0006      Joel    
 7 US      US01           Survivor: Borneo      1 Gretchen… US0007      Gretchen
 8 US      US01           Survivor: Borneo      1 Greg Buis US0008      Greg    
 9 US      US01           Survivor: Borneo      1 Jenna Le… US0009      Jenna   
10 US      US01           Survivor: Borneo      1 Gervase … US0010      Gervase 
# ℹ 1,341 more rows
# ℹ 22 more variables: age <dbl>, city <chr>, state <chr>, episode <dbl>,
#   day <dbl>, order <dbl>, result <chr>, place <dbl>, jury_status <chr>,
#   original_tribe <chr>, jury <lgl>, finalist <lgl>, winner <lgl>,
#   acknowledge <lgl>, ack_look <lgl>, ack_speak <lgl>, ack_gesture <lgl>,
#   ack_smile <lgl>, ack_quote <chr>, ack_score <dbl>, jury1 <dbl>, jury2 <fct>
…
Simple functions for working with factors.

Part of the tidyverse

# loaded with tidyverse
library(forcats)

gss_cat

A sample of data from the General Social Survey, a long-running US survey conducted by NORC at the University of Chicago.

# A tibble: 21,483 × 9
    year marital         age race  rincome        partyid    relig denom tvhours
   <int> <fct>         <int> <fct> <fct>          <fct>      <fct> <fct>   <int>
 1  2000 Never married    26 White $8000 to 9999  Ind,near … Prot… Sout…      12
 2  2000 Divorced         48 White $8000 to 9999  Not str r… Prot… Bapt…      NA
 3  2000 Widowed          67 White Not applicable Independe… Prot… No d…       2
 4  2000 Never married    39 White Not applicable Ind,near … Orth… Not …       4
 5  2000 Divorced         25 White Not applicable Not str d… None  Not …       1
 6  2000 Married          25 White $20000 - 24999 Strong de… Prot… Sout…      NA
 7  2000 Never married    36 White $25000 or more Not str r… Chri… Not …       3
 8  2000 Divorced         44 White $7000 to 7999  Ind,near … Prot… Luth…      NA
 9  2000 Married          44 White $25000 or more Not str d… Prot… Other       0
10  2000 Married          47 White $25000 or more Strong re… Prot… Sout…       3
# ℹ 21,473 more rows
…
Use gss_cat to answer the following questions.

Which religions watch the least TV?

Do married people watch more or less TV than single people?

−&plus;

04:00

Which religions watch the least TV?

gss_cat

# A tibble: 21,483 × 9
    year marital         age race  rincome        partyid    relig denom tvhours
   <int> <fct>         <int> <fct> <fct>          <fct>      <fct> <fct>   <int>
 1  2000 Never married    26 White $8000 to 9999  Ind,near … Prot… Sout…      12
 2  2000 Divorced         48 White $8000 to 9999  Not str r… Prot… Bapt…      NA
 3  2000 Widowed          67 White Not applicable Independe… Prot… No d…       2
 4  2000 Never married    39 White Not applicable Ind,near … Orth… Not …       4
 5  2000 Divorced         25 White Not applicable Not str d… None  Not …       1
 6  2000 Married          25 White $20000 - 24999 Strong de… Prot… Sout…      NA
 7  2000 Never married    36 White $25000 or more Not str r… Chri… Not …       3
 8  2000 Divorced         44 White $7000 to 7999  Ind,near … Prot… Luth…      NA
 9  2000 Married          44 White $25000 or more Not str d… Prot… Other       0
10  2000 Married          47 White $25000 or more Strong re… Prot… Sout…       3
# ℹ 21,473 more rows

Which religions watch the least TV?

gss_cat %>%
  drop_na(tvhours)

# A tibble: 11,337 × 9
    year marital         age race  rincome        partyid    relig denom tvhours
   <int> <fct>         <int> <fct> <fct>          <fct>      <fct> <fct>   <int>
 1  2000 Never married    26 White $8000 to 9999  Ind,near … Prot… Sout…      12
 2  2000 Widowed          67 White Not applicable Independe… Prot… No d…       2
 3  2000 Never married    39 White Not applicable Ind,near … Orth… Not …       4
 4  2000 Divorced         25 White Not applicable Not str d… None  Not …       1
 5  2000 Never married    36 White $25000 or more Not str r… Chri… Not …       3
 6  2000 Married          44 White $25000 or more Not str d… Prot… Other       0
 7  2000 Married          47 White $25000 or more Strong re… Prot… Sout…       3
 8  2000 Married          53 White $25000 or more Not str d… Prot… Other       2
 9  2000 Married          52 White $25000 or more Strong de… Prot… Sout…       1
10  2000 Divorced         52 White $25000 or more Ind,near … None  Not …       1
# ℹ 11,327 more rows

Which religions watch the least TV?

gss_cat %>%
  drop_na(tvhours) %>%
  group_by(relig)

# A tibble: 11,337 × 9
# Groups:   relig [15]
    year marital         age race  rincome        partyid    relig denom tvhours
   <int> <fct>         <int> <fct> <fct>          <fct>      <fct> <fct>   <int>
 1  2000 Never married    26 White $8000 to 9999  Ind,near … Prot… Sout…      12
 2  2000 Widowed          67 White Not applicable Independe… Prot… No d…       2
 3  2000 Never married    39 White Not applicable Ind,near … Orth… Not …       4
 4  2000 Divorced         25 White Not applicable Not str d… None  Not …       1
 5  2000 Never married    36 White $25000 or more Not str r… Chri… Not …       3
 6  2000 Married          44 White $25000 or more Not str d… Prot… Other       0
 7  2000 Married          47 White $25000 or more Strong re… Prot… Sout…       3
 8  2000 Married          53 White $25000 or more Not str d… Prot… Other       2
 9  2000 Married          52 White $25000 or more Strong de… Prot… Sout…       1
10  2000 Divorced         52 White $25000 or more Ind,near … None  Not …       1
# ℹ 11,327 more rows
…
fct_reorder2

Changes values of levels

.f factor vector

... new level = old level pairs (as a named character vector)

fct_recode(.f, ...)

Recoding partyid

gss_cat

# A tibble: 21,483 × 9
    year marital         age race  rincome        partyid    relig denom tvhours
   <int> <fct>         <int> <fct> <fct>          <fct>      <fct> <fct>   <int>
 1  2000 Never married    26 White $8000 to 9999  Ind,near … Prot… Sout…      12
 2  2000 Divorced         48 White $8000 to 9999  Not str r… Prot… Bapt…      NA
 3  2000 Widowed          67 White Not applicable Independe… Prot… No d…       2
 4  2000 Never married    39 White Not applicable Ind,near … Orth… Not …       4
 5  2000 Divorced         25 White Not applicable Not str d… None  Not …       1
 6  2000 Married          25 White $20000 - 24999 Strong de… Prot… Sout…      NA
 7  2000 Never married    36 White $25000 or more Not str r… Chri… Not …       3
 8  2000 Divorced         44 White $7000 to 7999  Ind,near … Prot… Luth…      NA
 9  2000 Married          44 White $25000 or more Not str d… Prot… Other       0
10  2000 Married          47 White $25000 or more Strong re… Prot… Sout…       3
# ℹ 21,473 more rows

Recoding partyid

gss_cat %>%
  drop_na(tvhours)

# A tibble: 11,337 × 9
    year marital         age race  rincome        partyid    relig denom tvhours
   <int> <fct>         <int> <fct> <fct>          <fct>      <fct> <fct>   <int>
 1  2000 Never married    26 White $8000 to 9999  Ind,near … Prot… Sout…      12
 2  2000 Widowed          67 White Not applicable Independe… Prot… No d…       2
 3  2000 Never married    39 White Not applicable Ind,near … Orth… Not …       4
 4  2000 Divorced         25 White Not applicable Not str d… None  Not …       1
 5  2000 Never married    36 White $25000 or more Not str r… Chri… Not …       3
 6  2000 Married          44 White $25000 or more Not str d… Prot… Other       0
 7  2000 Married          47 White $25000 or more Strong re… Prot… Sout…       3
 8  2000 Married          53 White $25000 or more Not str d… Prot… Other       2
 9  2000 Married          52 White $25000 or more Strong de… Prot… Sout…       1
10  2000 Divorced         52 White $25000 or more Ind,near … None  Not …       1
# ℹ 11,327 more rows

Recoding partyid

gss_cat %>%
  drop_na(tvhours) %>%
  select(partyid, tvhours)

# A tibble: 11,337 × 2
   partyid            tvhours
   <fct>                <int>
 1 Ind,near rep            12
 2 Independent              2
 3 Ind,near rep             4
 4 Not str democrat         1
 5 Not str republican       3
 6 Not str democrat         0
 7 Strong republican        3
 8 Not str democrat         2
 9 Strong democrat          1
10 Ind,near dem             1
# ℹ 11,327 more rows

Recoding partyid

gss_cat %>%
  drop_na(tvhours) %>%
  select(partyid, tvhours) %>%
    mutate(partyid = fct_recode(partyid,
    "Republican, strong"    = "Strong republican",
    "Republican, weak"      = "Not str republican",
    "Independent, near rep" = "Ind,near rep",
    "Independent, near dem" = "Ind,near dem",
    "Democrat, weak"        = "Not str democrat",
    "Democrat, strong"      = "Strong democrat"))

# A tibble: 11,337 × 2
   partyid               tvhours
   <fct>                   <int>
 1 Independent, near rep      12
 2 Independent                 2
 3 Independent, near rep       4
 4 Democrat, weak              1
 5 Republican, weak            3
 6 Democrat, weak              0
 7 Republican, strong          3
 8 Democrat, weak              2
 9 Democrat, strong            1
10 Independent, near dem       1
# ℹ 11,327 more rows
Recoding partyid

gss_cat %>%
  drop_na(tvhours) %>%
  select(partyid, tvhours) %>%
    mutate(partyid = fct_recode(partyid,
    "Republican, strong"    = "Strong republican",
    "Republican, weak"      = "Not str republican",
    "Independent, near rep" = "Ind,near rep",
    "Independent, near dem" = "Ind,near dem",
    "Democrat, weak"        = "Not str democrat",
    "Democrat, strong"      = "Strong democrat")) %>%
  group_by(partyid)

# A tibble: 11,337 × 2
# Groups:   partyid [10]
   partyid               tvhours
   <fct>                   <int>
 1 Independent, near rep      12
 2 Independent                 2
 3 Independent, near rep       4
 4 Democrat, weak              1
 5 Republican, weak            3
 6 Democrat, weak              0
 7 Republican, strong          3
 8 Democrat, weak              2
 9 Democrat, strong            1
10 Independent, near dem       1
# ℹ 11,327 more rows
…
fct_collapse()

Changes multiple levels into single levels

.f factor vector

... named arguments set to a character vector (levels in the vector will be collapsed to the name of the argument)

fct_collapse(.f, ...)

Collapsing partyid

gss_cat

# A tibble: 21,483 × 9
    year marital         age race  rincome        partyid    relig denom tvhours
   <int> <fct>         <int> <fct> <fct>          <fct>      <fct> <fct>   <int>
 1  2000 Never married    26 White $8000 to 9999  Ind,near … Prot… Sout…      12
 2  2000 Divorced         48 White $8000 to 9999  Not str r… Prot… Bapt…      NA
 3  2000 Widowed          67 White Not applicable Independe… Prot… No d…       2
 4  2000 Never married    39 White Not applicable Ind,near … Orth… Not …       4
 5  2000 Divorced         25 White Not applicable Not str d… None  Not …       1
 6  2000 Married          25 White $20000 - 24999 Strong de… Prot… Sout…      NA
 7  2000 Never married    36 White $25000 or more Not str r… Chri… Not …       3
 8  2000 Divorced         44 White $7000 to 7999  Ind,near … Prot… Luth…      NA
 9  2000 Married          44 White $25000 or more Not str d… Prot… Other       0
10  2000 Married          47 White $25000 or more Strong re… Prot… Sout…       3
# ℹ 21,473 more rows

Collapsing partyid

gss_cat %>%
  drop_na(tvhours)

# A tibble: 11,337 × 9
    year marital         age race  rincome        partyid    relig denom tvhours
   <int> <fct>         <int> <fct> <fct>          <fct>      <fct> <fct>   <int>
 1  2000 Never married    26 White $8000 to 9999  Ind,near … Prot… Sout…      12
 2  2000 Widowed          67 White Not applicable Independe… Prot… No d…       2
 3  2000 Never married    39 White Not applicable Ind,near … Orth… Not …       4
 4  2000 Divorced         25 White Not applicable Not str d… None  Not …       1
 5  2000 Never married    36 White $25000 or more Not str r… Chri… Not …       3
 6  2000 Married          44 White $25000 or more Not str d… Prot… Other       0
 7  2000 Married          47 White $25000 or more Strong re… Prot… Sout…       3
 8  2000 Married          53 White $25000 or more Not str d… Prot… Other       2
 9  2000 Married          52 White $25000 or more Strong de… Prot… Sout…       1
10  2000 Divorced         52 White $25000 or more Ind,near … None  Not …       1
# ℹ 11,327 more rows

Collapsing partyid

gss_cat %>%
  drop_na(tvhours) %>%
  select(partyid, tvhours)

# A tibble: 11,337 × 2
   partyid            tvhours
   <fct>                <int>
 1 Ind,near rep            12
 2 Independent              2
 3 Ind,near rep             4
 4 Not str democrat         1
 5 Not str republican       3
 6 Not str democrat         0
 7 Strong republican        3
 8 Not str democrat         2
 9 Strong democrat          1
10 Ind,near dem             1
# ℹ 11,327 more rows
…
  drop_na(tvhours) %>%
  select(partyid, tvhours) %>%
  mutate(
    partyid =
      fct_collapse(
        partyid,
        conservative = c("Strong republican",
                         "Not str republican",
                         "Ind,near rep"),
        liberal = c("Strong democrat",
                    "Not str democrat",
                    "Ind,near dem"))
  )

# A tibble: 11,337 × 2
   partyid      tvhours
   <fct>          <int>
 1 conservative      12
 2 Independent        2
 3 conservative       4
 4 liberal            1
 5 conservative       3
 6 liberal            0
 7 conservative       3
 8 liberal            2
 9 liberal            1
10 liberal            1
# ℹ 11,327 more rows
…
  select(partyid, tvhours) %>%
  mutate(
    partyid =
      fct_collapse(
        partyid,
        conservative = c("Strong republican",
                         "Not str republican",
                         "Ind,near rep"),
        liberal = c("Strong democrat",
                    "Not str democrat",
                    "Ind,near dem"))
  ) %>%
  group_by(partyid)

# A tibble: 11,337 × 2
# Groups:   partyid [6]
   partyid      tvhours
   <fct>          <int>
 1 conservative      12
 2 Independent        2
 3 conservative       4
 4 liberal            1
 5 conservative       3
 6 liberal            0
 7 conservative       3
 8 liberal            2
 9 liberal            1
10 liberal            1
# ℹ 11,327 more rows
…
