Stat 220 – Data Wrangling: Pipes & Groups
…
# A tibble: 1 × 8
   unitid admission_rate   act undergrads   cost grad_rate fy_retention fedloan
    <dbl>          <dbl> <dbl>      <dbl>  <dbl>     <dbl>        <dbl>   <dbl>
1 203732.          0.688  23.2      3559. 36620.     0.550        0.743   0.533

But make sure they make sense!

group_by()

Groups cases by common values of one or more columns

colleges %>% 
  group_by(state)

# A tibble: 187 × 13
# Groups:   state [44]
  unitid school   type  city  state region admission_rate   act undergrads  cost
   <dbl> <chr>    <chr> <chr> <chr> <chr>           <dbl> <dbl>      <dbl> <dbl>
1 228343 Southwe… priv… Geor… TX    South…          0.490    26       1507 55886
2 177719 Barnes-… priv… Sain… MO    Plains         NA        NA        569    NA
3 367884 Hodges … priv… Fort… FL    South…          0.612    NA        832 27425
# ℹ 184 more rows
# ℹ 3 more variables: grad_rate <dbl>, fy_retention <dbl>, fedloan <dbl>
…
Statistics by group: group_by + summarize

Summary statistics by state

colleges %>%
  group_by(state) %>%
  summarize(
    n_schools = n(),
    avg_cost = mean(cost, na.rm = TRUE),
    min_size = min(undergrads, na.rm = TRUE),
    max_size = max(undergrads, na.rm = TRUE)
  )

# A tibble: 44 × 5
   state n_schools avg_cost min_size max_size
   <chr>     <int>    <dbl>    <dbl>    <dbl>
 1 AL            4   22242.      245     7785
 2 AR            3   43816.      512     1447
 3 AZ            2   33388.      803    33715
 4 CA            9   42807.       43    23337
 5 CO            2   45574      5755     8448
 6 CT            3   29895.      174     4425
 7 FL            5   34747.       39     2401
 8 GA            6   27961       235     9742
 9 HI            1   36765      1558     1558
10 IA            1     NaN       339      339
# ℹ 34 more rows
…
03:30

Calculating counts

count() can be used as a short cut to group_by() + summarize() if you are only calculating counts

group_by()
count()

colleges %>% 
  group_by(state) %>%
  summarize(n = n())

# A tibble: 44 × 2
   state     n
   <chr> <int>
 1 AL        4
 2 AR        3
 3 AZ        2
 4 CA        9
 5 CO        2
 6 CT        3
 7 FL        5
 8 GA        6
 9 HI        1
10 IA        1
# ℹ 34 more rows

colleges %>% count(state)

# A tibble: 44 × 2
   state     n
   <chr> <int>
 1 AL        4
 2 AR        3
 3 AZ        2
 4 CA        9
 5 CO        2
 6 CT        3
 7 FL        5
 8 GA        6
 9 HI        1
10 IA        1
# ℹ 34 more rows

Calculations by group: group_by + mutate

Calculate z-scores within regions

colleges %>%
  group_by(region) %>%
  mutate(z_cost = (cost - mean(cost, na.rm = TRUE)) / sd(cost, na.rm = TRUE))

# A tibble: 187 × 14
# Groups:   region [10]
   unitid school  type  city  state region admission_rate   act undergrads  cost
    <dbl> <chr>   <chr> <chr> <chr> <chr>           <dbl> <dbl>      <dbl> <dbl>
 1 228343 Southw… priv… Geor… TX    South…          0.490    26       1507 55886
 2 177719 Barnes… priv… Sain… MO    Plains         NA        NA        569    NA
 3 367884 Hodges… priv… Fort… FL    South…          0.612    NA        832 27425
 4 149781 Wheato… priv… Whea… IL    Great…          0.848    29       2358 49214
 5 135364 Luther… priv… Lith… GA    South…          0.5      NA        235    NA
 6 212601 Gannon… priv… Erie  PA    Mid E…          0.755    23       2866 44896
 7 133979 Florid… priv… Miam… FL    South…          0.400    NA       1049 27460
 8 117140 Univer… priv… La V… CA    Far W…          0.548    22       4516 58014
 9 152567 Trine … priv… Ango… IN    Great…          0.816    25       2120 46440
10 237057 Whitma… priv… Wall… WA    Far W…          0.559    31       1545 68082
# ℹ 177 more rows
# ℹ 4 more variables: grad_rate <dbl>, fy_retention <dbl>, fedloan <dbl>,
#   z_cost <dbl>
…
Once data are grouped, they remain grouped until you manually ungroup them

Some summary functions ungroup them for you, e.g., count() and summarize()

colleges %>%
  group_by(region) %>%
  mutate(z_cost = (cost - mean(cost, na.rm = TRUE)) / sd(cost, na.rm = TRUE)) %>%
  ungroup() %>%
  select(school, city, cost, z_cost)

With ungroup()
Without ungroup()

# A tibble: 187 × 4
   school                                           city           cost z_cost
   <chr>                                            <chr>         <dbl>  <dbl>
 1 Southwestern University                          Georgetown    55886  1.51 
 2 Barnes-Jewish College Goldfarb School of Nursing Saint Louis      NA NA    
 3 Hodges University                                Fort Myers    27425 -0.467
 4 Wheaton College                                  Wheaton       49214  1.06 
 5 Luther Rice College & Seminary                   Lithonia         NA NA    
 6 Gannon University                                Erie          44896  0.261
 7 Florida Memorial University                      Miami Gardens 27460 -0.465
 8 University of La Verne                           La Verne      58014  1.14 
 9 Trine University                                 Angola        46440  0.849
10 Whitman College                                  Walla Walla   68082  1.79 
# ℹ 177 more rows

# A tibble: 187 × 5
# Groups:   region [10]
   region      school                                         city   cost z_cost
   <chr>       <chr>                                          <chr> <dbl>  <dbl>
 1 Southwest   Southwestern University                        Geor… 55886  1.51 
 2 Plains      Barnes-Jewish College Goldfarb School of Nurs… Sain…    NA NA    
 3 Southeast   Hodges University                              Fort… 27425 -0.467
 4 Great Lakes Wheaton College                                Whea… 49214  1.06 
 5 Southeast   Luther Rice College & Seminary                 Lith…    NA NA    
 6 Mid East    Gannon University                              Erie  44896  0.261
 7 Southeast   Florida Memorial University                    Miam… 27460 -0.465
 8 Far West    University of La Verne                         La V… 58014  1.14 
 9 Great Lakes Trine University                               Ango… 46440  0.849
10 Far West    Whitman College                                Wall… 68082  1.79 
# ℹ 177 more rows

Aside: code commenting

In R, you can use # for adding comments to your code. Any text that follows the # will be printed as-is and won’t be run as code. This is useful for leaving comments in your code and for temporarily disabling certain lines of code for debugging.

colleges %>%
  group_by(state) %>%
  summarize(
    n_schools = n(),                               # This is a reminder to me
    # avg_cost = mean(cost, na.rm = TRUE),         # This line isn't run
    min_size = min(undergrads, na.rm = TRUE),
    max_size = max(undergrads, na.rm = TRUE)
  )

# A tibble: 44 × 4
   state n_schools min_size max_size
   <chr>     <int>    <dbl>    <dbl>
 1 AL            4      245     7785
 2 AR            3      512     1447
 3 AZ            2      803    33715
 4 CA            9       43    23337
 5 CO            2     5755     8448
 6 CT            3      174     4425
 7 FL            5       39     2401
 8 GA            6      235     9742
 9 HI            1     1558     1558
10 IA            1      339      339
# ℹ 34 more rows
…
# A tibble: 1 × 4
  n_schools avg_cost min_size max_size
      <int>    <dbl>    <dbl>    <dbl>
1       187   36620.        0    33715

Code Style

Which is easier to read?

Option A
Option B

group_by(colleges, region) %>% mutate(z_cost = (cost - mean(cost, na.rm = TRUE)) / sd(cost, na.rm = TRUE)) %>% ungroup() 

# A tibble: 187 × 14
   unitid school  type  city  state region admission_rate   act undergrads  cost
    <dbl> <chr>   <chr> <chr> <chr> <chr>           <dbl> <dbl>      <dbl> <dbl>
 1 228343 Southw… priv… Geor… TX    South…          0.490    26       1507 55886
 2 177719 Barnes… priv… Sain… MO    Plains         NA        NA        569    NA
 3 367884 Hodges… priv… Fort… FL    South…          0.612    NA        832 27425
 4 149781 Wheato… priv… Whea… IL    Great…          0.848    29       2358 49214
 5 135364 Luther… priv… Lith… GA    South…          0.5      NA        235    NA
 6 212601 Gannon… priv… Erie  PA    Mid E…          0.755    23       2866 44896
 7 133979 Florid… priv… Miam… FL    South…          0.400    NA       1049 27460
 8 117140 Univer… priv… La V… CA    Far W…          0.548    22       4516 58014
 9 152567 Trine … priv… Ango… IN    Great…          0.816    25       2120 46440
10 237057 Whitma… priv… Wall… WA    Far W…          0.559    31       1545 68082
# ℹ 177 more rows
# ℹ 4 more variables: grad_rate <dbl>, fy_retention <dbl>, fedloan <dbl>,
#   z_cost <dbl>

colleges %>%
  group_by(region) %>%
  mutate(z_cost = (cost - mean(cost, na.rm = TRUE)) / sd(cost, na.rm = TRUE)) %>%
  ungroup() #<<

# A tibble: 187 × 14
   unitid school  type  city  state region admission_rate   act undergrads  cost
    <dbl> <chr>   <chr> <chr> <chr> <chr>           <dbl> <dbl>      <dbl> <dbl>
 1 228343 Southw… priv… Geor… TX    South…          0.490    26       1507 55886
 2 177719 Barnes… priv… Sain… MO    Plains         NA        NA        569    NA
 3 367884 Hodges… priv… Fort… FL    South…          0.612    NA        832 27425
 4 149781 Wheato… priv… Whea… IL    Great…          0.848    29       2358 49214
 5 135364 Luther… priv… Lith… GA    South…          0.5      NA        235    NA
 6 212601 Gannon… priv… Erie  PA    Mid E…          0.755    23       2866 44896
 7 133979 Florid… priv… Miam… FL    South…          0.400    NA       1049 27460
 8 117140 Univer… priv… La V… CA    Far W…          0.548    22       4516 58014
 9 152567 Trine … priv… Ango… IN    Great…          0.816    25       2120 46440
10 237057 Whitma… priv… Wall… WA    Far W…          0.559    31       1545 68082
# ℹ 177 more rows
# ℹ 4 more variables: grad_rate <dbl>, fy_retention <dbl>, fedloan <dbl>,
#   z_cost <dbl>
…
