Stat 220 – Intro to Interactivity in R
…
Include a popup with the island name

−&plus;

05:00

Data Tables

Printing tables

By default, R prints the tibble using typical code formatting:

gapminder2021

# A tibble: 195 × 17
   country         year  life income population geo   four_regions eight_regions
   <chr>          <dbl> <dbl>  <dbl>      <dbl> <chr> <chr>        <chr>        
 1 Afghanistan     2021  64.3   1990   40800000 afg   asia         asia_west    
 2 Angola          2021  66.1   5980   35000000 ago   africa       africa_sub_s…
 3 Albania         2021  78.8  14700    2870000 alb   europe       europe_east  
 4 Andorra         2021  NA    56500      77500 and   europe       europe_west  
 5 United Arab E…  2021  74.3  65200   10100000 are   asia         asia_west    
 6 Argentina       2021  77    22100   46000000 arg   americas     america_south
 7 Armenia         2021  76.1  13600    2970000 arm   europe       europe_east  
 8 Antigua and B…  2021  76.7  18600      99500 atg   americas     america_north
 9 Australia       2021  83.3  51900   26100000 aus   asia         east_asia_pa…
10 Austria         2021  82.6  55000    9070000 aut   europe       europe_west  
# ℹ 185 more rows
# ℹ 9 more variables: six_regions <chr>, members_oecd_g77 <chr>,
#   Latitude <dbl>, Longitude <dbl>, `UN member since` <chr>,
#   `World bank region` <chr>, `World bank, 4 income groups 2017` <chr>,
#   `World bank, 3 income groups 2017` <chr>, UNHCR <chr>
…
