Stat 220 – Web Scraping II
…
[1] "R"        "R"        "PG-13"    "R"        "Approved" "PG-13"   

Put the pieces together

imdb_top_250 <- tibble(
  title = titles, 
  year = years, 
  runtime = runtimes,
  mpaa = mpaas
  )

imdb_top_250

# A tibble: 25 × 4
   title                                                year  runtime mpaa    
   <chr>                                                <chr> <chr>   <chr>   
 1 1. The Shawshank Redemption                          1994  2h 22m  R       
 2 2. The Godfather                                     1972  2h 55m  R       
 3 3. The Dark Knight                                   2008  2h 32m  PG-13   
 4 4. The Godfather Part II                             1974  3h 22m  R       
 5 5. 12 Angry Men                                      1957  1h 36m  Approved
 6 6. The Lord of the Rings: The Return of the King     2003  3h 21m  PG-13   
 7 7. Schindler's List                                  1993  3h 15m  R       
 8 8. Pulp Fiction                                      1994  2h 34m  R       
 9 9. The Lord of the Rings: The Fellowship of the Ring 2001  2h 58m  PG-13   
10 10. The Good, the Bad and the Ugly                   1966  2h 58m  R       
# ℹ 15 more rows

Wait a second…. there’s not 250 movies here

imdb_top_250

# A tibble: 25 × 4
   title                                                year  runtime mpaa    
   <chr>                                                <chr> <chr>   <chr>   
 1 1. The Shawshank Redemption                          1994  2h 22m  R       
 2 2. The Godfather                                     1972  2h 55m  R       
 3 3. The Dark Knight                                   2008  2h 32m  PG-13   
 4 4. The Godfather Part II                             1974  3h 22m  R       
 5 5. 12 Angry Men                                      1957  1h 36m  Approved
 6 6. The Lord of the Rings: The Return of the King     2003  3h 21m  PG-13   
 7 7. Schindler's List                                  1993  3h 15m  R       
 8 8. Pulp Fiction                                      1994  2h 34m  R       
 9 9. The Lord of the Rings: The Fellowship of the Ring 2001  2h 58m  PG-13   
10 10. The Good, the Bad and the Ugly                   1966  2h 58m  R       
# ℹ 15 more rows
…
