Stat 220 – APIs
…
Convert response to tibble

mn_tbl <- as_tibble(mn_search)
mn_tbl

# A tibble: 50 × 19
   id             abstract byline document_type headline keywords lead_paragraph
   <chr>          <chr>    <chr>  <chr>         <chr>    <chr>    <chr>         
 1 nyt://article… This ye… By Ja… article       A New Y… New Yea… It’s the firs…
 2 nyt://article… Many st… By Ad… article       New Sta… States … A spate of ne…
 3 nyt://article… In Chil… By Ja… article       Cats Fi… Prisons… Some say they…
 4 nyt://interac… Detaile… By Jo… multimedia    Week 17… Footbal… Detailed tabl…
 5 nyt://article… Maine f… By Je… article       Maine J… Preside… Maine on Thur…
 6 nyt://article… The Uni… By Ni… article       Univers… College… The chancello…
 7 nyt://interac… Data sh… By El… multimedia    Where M… Immigra… Data shows wh…
 8 nyt://article… Private… By Ha… article       They’re… Child L… One morning i…
 9 nyt://article… The his… By Jo… article       The Vir… English… My partner an…
10 nyt://article… Gator t… By Sc… article       ‘Fargo’… Televis… After eight e…
# ℹ 40 more rows
# ℹ 12 more variables: multimedia <chr>, news_desk <chr>, print_page <chr>,
#   print_section <chr>, pub_date <dttm>, section_name <chr>, snippet <chr>,
#   source <chr>, type_of_material <chr>, uri <chr>, web_url <chr>,
#   word_count <int>

Let’s take a peek at a couple of columns:

mn_tbl %>%
  select(pub_date, headline, document_type, keywords)

# A tibble: 50 × 4
   pub_date            headline                           document_type keywords
   <dttm>              <chr>                              <chr>         <chr>   
 1 2024-01-01 10:57:10 A New Year’s Energy Boost          article       New Yea…
 2 2024-01-01 08:00:30 New State Laws on Hot-Button Issu… article       States …
 3 2023-12-31 10:02:32 Cats Filled the Prison. Then the … article       Prisons…
 4 2023-12-30 05:08:59 Week 17 N.F.L. Playoff Picture: A… multimedia    Footbal…
 5 2023-12-29 00:01:11 Maine Joins Colorado in Finding T… article       Preside…
 6 2023-12-28 23:46:06 University Chancellor Fired After… article       College…
 7 2023-12-28 10:03:05 Where Migrant Children Are Living… multimedia    Immigra…
 8 2023-12-28 10:02:51 They’re Paid Billions to Root Out… article       Child L…
 9 2023-12-27 20:00:02 The Virtues of Inauthenticity      article       English…
10 2023-12-27 04:00:07 ‘Fargo’ Season 5, Episode 7: Not … article       Televis…
# ℹ 40 more rows
…
geography = "tract": What level of detail to get summary statistics. Other options include “state”, “county”, “combined statistical area”, etc.

variables = c("B01003_001", "B19013_001"): Which survey questions should we get responses to?

Searching for variables

Getting variables from the Census or ACS requires knowing the variable ID - and there are thousands of these IDs across the different Census files.

acs_vars <- load_variables(2020, "acs5", cache = TRUE) 
acs_vars 

# A tibble: 27,850 × 4
   name        label                                    concept        geography
   <chr>       <chr>                                    <chr>          <chr>    
 1 B01001A_001 Estimate!!Total:                         SEX BY AGE (W… tract    
 2 B01001A_002 Estimate!!Total:!!Male:                  SEX BY AGE (W… tract    
 3 B01001A_003 Estimate!!Total:!!Male:!!Under 5 years   SEX BY AGE (W… tract    
 4 B01001A_004 Estimate!!Total:!!Male:!!5 to 9 years    SEX BY AGE (W… tract    
 5 B01001A_005 Estimate!!Total:!!Male:!!10 to 14 years  SEX BY AGE (W… tract    
 6 B01001A_006 Estimate!!Total:!!Male:!!15 to 17 years  SEX BY AGE (W… tract    
 7 B01001A_007 Estimate!!Total:!!Male:!!18 and 19 years SEX BY AGE (W… tract    
 8 B01001A_008 Estimate!!Total:!!Male:!!20 to 24 years  SEX BY AGE (W… tract    
 9 B01001A_009 Estimate!!Total:!!Male:!!25 to 29 years  SEX BY AGE (W… tract    
10 B01001A_010 Estimate!!Total:!!Male:!!30 to 34 years  SEX BY AGE (W… tract    
# ℹ 27,840 more rows
…
acs_vars %>%
  filter(name %in% c("B01003_001", "B19013_001"))

# A tibble: 2 × 4
  name       label                                             concept geography
  <chr>      <chr>                                             <chr>   <chr>    
1 B01003_001 Estimate!!Total                                   TOTAL … block gr…
2 B19013_001 Estimate!!Median household income in the past 12… MEDIAN… block gr…

But we could search for other variables using label

acs_vars %>%
  filter(str_detect(label, "degree"))

# A tibble: 345 × 4
   name         label                                          concept geography
   <chr>        <chr>                                          <chr>   <chr>    
 1 B06009PR_004 Estimate!!Total:!!Some college or associate's… PLACE … <NA>     
 2 B06009PR_005 Estimate!!Total:!!Bachelor's degree            PLACE … <NA>     
 3 B06009PR_006 Estimate!!Total:!!Graduate or professional de… PLACE … <NA>     
 4 B06009PR_010 Estimate!!Total:!!Born in Puerto Rico:!!Some … PLACE … <NA>     
 5 B06009PR_011 Estimate!!Total:!!Born in Puerto Rico:!!Bache… PLACE … <NA>     
 6 B06009PR_012 Estimate!!Total:!!Born in Puerto Rico:!!Gradu… PLACE … <NA>     
 7 B06009PR_016 Estimate!!Total:!!Born in the United States:!… PLACE … <NA>     
 8 B06009PR_017 Estimate!!Total:!!Born in the United States:!… PLACE … <NA>     
 9 B06009PR_018 Estimate!!Total:!!Born in the United States:!… PLACE … <NA>     
10 B06009PR_022 Estimate!!Total:!!Native; born elsewhere:!!So… PLACE … <NA>     
# ℹ 335 more rows
…
Actually getting the data in the form we can work with

hmong_state_tbl <- hmong_state_response %>%
  resp_body_json(simplifyVector = TRUE) %>%
  janitor::row_to_names(1) %>%
  as_tibble()

hmong_state_tbl

# A tibble: 52 × 4
   NAME      B02015_009E B02015_009M state
   <chr>     <chr>       <chr>       <chr>
 1 Illinois  655         511         17   
 2 Georgia   3162        1336        13   
 3 Idaho     <NA>        <NA>        16   
 4 Hawaii    56          92          15   
 5 Indiana   1344        1198        18   
 6 Iowa      685         705         19   
 7 Kansas    2189        1177        20   
 8 Kentucky  530         503         21   
 9 Louisiana 0           224         22   
10 Maine     <NA>        <NA>        23   
# ℹ 42 more rows
…
